{
  "sobre-mi": {
    "nombre" : "Stalin Maza",
    "correo" : "stalin_ct97@hotmail.com"
  },
  "redes-mias": {
    "facebook" : "https://www.facebook.com/stalinmaza97",
    "github" : "https://github.com/StalinMazaEpn",
    "instagram" : "https://instagram.com/stalinmaza97",
    "twitter" : "https://www.twitter.com/stalinct97",
    "youtube" : "https://youtube.com/channel/UCMDvFIXXZv5tUXNa7-qF5pw?view_as=subscriber",
    "linkedin": "https://www.linkedin.com/in/stalinmaza131197"
  },
  "experiencia": {
    "proyecto labcivico": {
      "nombre": "LabCívico",
      "descripcion": "Plataforma Web de Reciclaje Inclusivo",
      "fecha": "2017-2018"
    }
  }
}